695,1295,1
695,1316,1
695,1337,1
695,1326,1
695,1274,1
696,1316,1
696,1279,1
696,1327,1
696,1337,1
696,1327,1
697,1330,1
697,1316,1
697,1295,1
697,1326,1
697,1274,1
698,1316,1
698,1279,1
698,1295,1
698,1330,1
698,1337,1
699,1314,1
699,1337,1
699,1280,1
699,1315,1
699,1274,1
700,1337,1
700,1295,1
700,1316,1
700,1332,1
700,1315,1
701,1316,1
701,1295,1
701,1295,1
701,1315,1
701,1337,1
702,1310,1
702,1290,1
702,1295,1
702,1331,1
702,1316,1
703,1295,1
703,1316,1
703,1274,1
703,1330,1
703,1326,1
704,1316,1
704,1337,1
704,1294,1
704,1295,1
704,1274,1
705,1294,1
705,1315,1
705,1314,1
705,1337,1
705,1316,1
706,1295,1
706,1326,1
706,1316,1
706,1337,1
706,1275,1
707,1295,1
707,1315,1
707,1294,1
707,1316,1
707,1337,1
708,1274,1
708,1315,1
708,1330,1
708,1337,1
708,1326,1
709,1326,1
709,1316,1
709,1279,1
709,1322,1
709,1337,1
710,1316,1
710,1310,1
710,1294,1
710,1330,1
710,1274,1
711,1314,1
711,1337,1
711,1280,1
711,1315,1
711,1274,1
712,1290,1
712,1316,1
712,1295,1
712,1337,1
712,1327,1
713,1330,1
713,1337,1
713,1280,1
713,1315,1
713,1274,1
714,1316,1
714,1295,1
714,1337,1
714,1294,1
714,1274,1
715,1316,1
715,1310,1
715,1294,1
715,1330,1
715,1274,1
716,1274,1
716,1290,1
716,1295,1
716,1337,1
716,1316,1
717,1337,1
717,1280,1
717,1306,1
717,1279,1
717,1275,1
718,1295,1
718,1331,1
718,1279,1
718,1274,1
718,1279,1
719,1295,1
719,1294,1
719,1315,1
719,1316,1
719,1337,1
720,1295,1
720,1315,1
720,1294,1
720,1316,1
720,1337,1
721,1334,1
721,1336,1
721,1310,1
721,1290,1
721,1326,1
722,1295,1
722,1317,1
722,1280,1
722,1315,1
722,1337,1
723,1300,1
723,1316,1
723,1279,1
723,1330,1
723,1337,1
724,1279,1
724,1300,1
724,1295,1
724,1330,1
724,1337,1
725,1316,1
725,1337,1
725,1275,1
725,1295,1
725,1274,1
726,1274,1
726,1322,1
726,1337,1
726,1275,1
726,1334,1
727,1316,1
727,1295,1
727,1290,1
727,1315,1
727,1337,1
728,1295,1
728,1295,1
728,1337,1
728,1274,1
728,1274,1
729,1337,1
729,1334,1
729,1295,1
729,1275,1
729,1274,1
730,1294,1
730,1280,1
730,1336,1
730,1295,1
730,1315,1
731,1295,1
731,1337,1
731,1294,1
731,1330,1
731,1274,1
732,1311,1
732,1274,1
732,1279,1
732,1331,1
732,1335,1
733,1311,1
733,1316,1
733,1327,1
733,1295,1
733,1337,1
734,1311,1
734,1330,1
734,1279,1
734,1290,1
734,1316,1
735,1316,1
735,1337,1
735,1295,1
735,1275,1
735,1274,1
736,1337,1
736,1295,1
736,1315,1
736,1274,1
736,1274,1
737,1295,1
737,1290,1
737,1316,1
737,1337,1
737,1327,1
738,1322,1
738,1295,1
738,1337,1
738,1334,1
738,1275,1
739,1290,1
739,1274,1
739,1332,1
739,1315,1
739,1295,1
740,1316,1
740,1295,1
740,1279,1
740,1274,1
740,1275,1
741,1330,1
741,1275,1
741,1315,1
741,1337,1
741,1326,1
742,1295,1
742,1337,1
742,1275,1
742,1274,1
742,1274,1
743,1295,1
743,1337,1
743,1332,1
743,1294,1
743,1274,1
744,1326,1
744,1296,1
744,1279,1
744,1330,1
744,1337,1
745,1294,1
745,1331,1
745,1315,1
745,1294,1
745,1337,1
746,1306,1
746,1328,1
746,1280,1
746,1316,1
746,1321,1
747,1295,1
747,1274,1
747,1295,1
747,1316,1
747,1337,1
748,1290,1
748,1294,1
748,1315,1
748,1336,1
748,1337,1
749,1295,1
749,1315,1
749,1306,1
749,1337,1
749,1290,1
750,1326,1
750,1290,1
750,1327,1
750,1322,1
750,1332,1
751,1337,1
751,1315,1
751,1295,1
751,1274,1
751,1274,1
752,1332,1
752,1331,1
752,1311,1
752,1311,1
752,1306,1
753,1285,1
753,1327,1
753,1332,1
753,1327,1
753,1337,1
754,1295,1
754,1274,1
754,1316,1
754,1299,1
754,1337,1
755,1295,1
755,1335,1
755,1332,1
755,1337,1
755,1327,1
756,1326,1
756,1323,1
756,1337,1
756,1332,1
756,1327,1
757,1295,1
757,1274,1
757,1327,1
757,1332,1
757,1337,1
758,1306,1
758,1274,1
758,1295,1
758,1316,1
758,1337,1
759,1290,1
759,1311,1
759,1316,1
759,1306,1
759,1337,1
760,1279,1
760,1337,1
760,1299,1
760,1279,1
760,1316,1
761,1311,1
761,1290,1
761,1326,1
761,1316,1
761,1337,1
762,1294,1
762,1314,1
762,1315,1
762,1336,1
762,1337,1
763,1326,1
763,1290,1
763,1327,1
763,1322,1
763,1332,1
764,1295,1
764,1290,1
764,1316,1
764,1299,1
764,1337,1
765,1337,1
765,1295,1
765,1274,1
765,1294,1
765,1275,1
766,1295,1
766,1290,1
766,1316,1
766,1299,1
766,1337,1
767,1294,1
767,1314,1
767,1315,1
767,1336,1
767,1337,1
768,1294,1
768,1327,1
768,1295,1
768,1316,1
768,1337,1
769,1330,1
769,1306,1
769,1311,1
769,1316,1
769,1337,1
770,1294,1
770,1314,1
770,1315,1
770,1337,1
770,1336,1
771,1295,1
771,1290,1
771,1316,1
771,1299,1
771,1337,1
772,1290,1
772,1311,1
772,1316,1
772,1274,1
772,1337,1
773,1295,1
773,1327,1
773,1311,1
773,1332,1
773,1337,1
774,1295,1
774,1274,1
774,1306,1
774,1316,1
774,1333,1
775,1285,1
775,1306,1
775,1332,1
775,1337,1
775,1327,1
776,1337,1
776,1337,1
776,1332,1
776,1332,1
776,1332,1
777,1294,1
777,1298,1
777,1332,1
777,1328,1
777,1337,1
778,1290,1
778,1295,1
778,1316,1
778,1299,1
778,1337,1
779,1294,1
779,1294,1
779,1315,1
779,1332,1
779,1337,1
780,1334,1
780,1290,1
780,1331,1
780,1337,1
780,1300,1
781,1311,1
781,1332,1
781,1311,1
781,1306,1
781,1337,1
782,1290,1
782,1294,1
782,1316,1
782,1328,1
782,1337,1
783,1295,1
783,1290,1
783,1332,1
783,1332,1
783,1337,1
784,1295,1
784,1331,1
784,1306,1
784,1274,1
784,1337,1
785,1295,1
785,1299,1
785,1315,1
785,1332,1
785,1337,1
786,1311,1
786,1316,1
786,1274,1
786,1294,1
786,1275,1
787,1316,1
787,1294,1
787,1294,1
787,1311,1
787,1337,1
788,1315,1
788,1295,1
788,1274,1
788,1306,1
788,1337,1
789,1326,1
789,1332,1
789,1337,1
789,1323,1
789,1327,1
790,1330,1
790,1306,1
790,1311,1
790,1316,1
790,1337,1
791,1290,1
791,1316,1
791,1306,1
791,1311,1
791,1337,1
792,1295,1
792,1306,1
792,1315,1
792,1274,1
792,1337,1
793,1334,1
793,1290,1
793,1331,1
793,1337,1
793,1300,1
794,1311,1
794,1290,1
794,1337,1
794,1331,1
794,1306,1
