1223,1645,1
1222,1645,1
1221,1645,1
1220,1645,1
1219,1645,1
1218,1645,1
1217,1645,1
1216,1645,1
1215,1645,1
1214,1645,1
1213,1645,1
1212,1645,1
1211,1645,1
1210,1645,1
1209,1645,1
1208,1645,1
1207,1645,1
1206,1645,1
1205,1645,1
1204,1645,1
1203,1645,1
1202,1645,1
1201,1645,1
1200,1645,1
1199,1645,1
1198,1645,1
1197,1645,1
1196,1645,1
1195,1645,1
1194,1645,1
1193,1645,1
1192,1645,1
1191,1645,1
1190,1645,1
1189,1645,1
1188,1645,1
1187,1645,1
1186,1645,1
1185,1645,1
1184,1645,1
1183,1645,1
1182,1645,1
1181,1645,1
1180,1645,1
1179,1645,1
1178,1645,1
1177,1645,1
1176,1645,1
1175,1645,1
1174,1645,1
1273,1646,1
1272,1646,1
1271,1646,1
1270,1646,1
1269,1646,1
1268,1646,1
1267,1646,1
1266,1646,1
1265,1646,1
1264,1646,1
1263,1646,1
1262,1646,1
1261,1646,1
1260,1646,1
1259,1646,1
1258,1646,1
1257,1646,1
1256,1646,1
1255,1646,1
1254,1646,1
1253,1646,1
1252,1646,1
1251,1646,1
1250,1646,1
1249,1646,1
1248,1646,1
1247,1646,1
1246,1646,1
1245,1646,1
1244,1646,1
1243,1646,1
1242,1646,1
1241,1646,1
1240,1646,1
1239,1646,1
1238,1646,1
1237,1646,1
1236,1646,1
1235,1646,1
1234,1646,1
1233,1646,1
1232,1646,1
1231,1646,1
1230,1646,1
1229,1646,1
1228,1646,1
1227,1646,1
1226,1646,1
1225,1646,1
1224,1646,1
