1262,1638,1
1258,1638,1
1238,1638,1
1216,1638,1
1212,1638,1
1188,1638,1
1267,1640,1
1245,1640,1
1210,1640,1
1208,1640,1
1205,1640,1
1201,1640,1
1190,1640,1
1180,1640,1
1176,1640,1
1253,1641,1
1243,1641,1
1237,1641,1
1228,1641,1
1224,1641,1
1213,1641,1
1198,1641,1
1186,1641,1
1177,1641,1
1270,1642,1
1269,1642,1
1268,1642,1
1265,1642,1
1264,1642,1
1263,1642,1
1261,1642,1
1257,1642,1
1256,1642,1
1255,1642,1
1254,1642,1
1251,1642,1
1249,1642,1
1248,1642,1
1246,1642,1
1242,1642,1
1241,1642,1
1240,1642,1
1239,1642,1
1236,1642,1
1234,1642,1
1233,1642,1
1232,1642,1
1231,1642,1
1229,1642,1
1225,1642,1
1222,1642,1
1218,1642,1
1211,1642,1
1207,1642,1
1206,1642,1
1204,1642,1
1202,1642,1
1200,1642,1
1197,1642,1
1193,1642,1
1189,1642,1
1185,1642,1
1174,1642,1
1273,1643,1
1272,1643,1
1271,1643,1
1266,1643,1
1260,1643,1
1259,1643,1
1252,1643,1
1250,1643,1
1247,1643,1
1244,1643,1
1235,1643,1
1230,1643,1
1227,1643,1
1226,1643,1
1223,1643,1
1221,1643,1
1220,1643,1
1219,1643,1
1217,1643,1
1215,1643,1
1214,1643,1
1209,1643,1
1203,1643,1
1199,1643,1
1196,1643,1
1195,1643,1
1194,1643,1
1192,1643,1
1191,1643,1
1187,1643,1
1184,1643,1
1183,1643,1
1182,1643,1
1181,1643,1
1179,1643,1
1178,1643,1
1175,1643,1
