1270,7,1
1269,7,1
1268,7,1
1265,7,1
1264,7,1
1262,7,1
1261,7,1
1258,7,1
1257,7,1
1256,7,1
1255,7,1
1254,7,1
1249,7,1
1248,7,1
1246,7,1
1241,7,1
1240,7,1
1238,7,1
1234,7,1
1232,7,1
1231,7,1
1225,7,1
1222,7,1
1216,7,1
1212,7,1
1207,7,1
1206,7,1
1200,7,1
1193,7,1
1189,7,1
1188,7,1
1185,7,1
1272,8,1
1271,8,1
1266,8,1
1263,8,1
1260,8,1
1259,8,1
1253,8,1
1252,8,1
1251,8,1
1250,8,1
1247,8,1
1244,8,1
1243,8,1
1239,8,1
1236,8,1
1235,8,1
1233,8,1
1230,8,1
1229,8,1
1228,8,1
1227,8,1
1226,8,1
1224,8,1
1223,8,1
1221,8,1
1220,8,1
1219,8,1
1218,8,1
1217,8,1
1215,8,1
1214,8,1
1213,8,1
1211,8,1
1209,8,1
1204,8,1
1203,8,1
1202,8,1
1199,8,1
1198,8,1
1197,8,1
1196,8,1
1195,8,1
1194,8,1
1192,8,1
1191,8,1
1187,8,1
1186,8,1
1184,8,1
1183,8,1
1182,8,1
1181,8,1
1179,8,1
1178,8,1
1177,8,1
1175,8,1
1174,8,1
1273,9,1
1267,9,1
1245,9,1
1242,9,1
1237,9,1
1210,9,1
1208,9,1
1205,9,1
1201,9,1
1190,9,1
1180,9,1
1176,9,1
