677,546,1
676,546,1
675,546,1
674,546,1
673,546,1
666,546,1
665,546,1
664,546,1
658,546,1
657,546,1
656,546,1
655,546,1
634,546,1
633,546,1
632,546,1
631,546,1
630,546,1
629,546,1
620,546,1
619,546,1
618,546,1
617,546,1
686,547,1
635,547,1
621,547,1
583,547,1
582,547,1
579,547,1
571,547,1
563,547,1
685,548,1
684,548,1
683,548,1
682,548,1
678,548,1
662,548,1
661,548,1
660,548,1
659,548,1
654,548,1
653,548,1
645,548,1
644,548,1
643,548,1
628,548,1
627,548,1
626,548,1
625,548,1
624,548,1
623,548,1
622,548,1
616,548,1
615,548,1
614,548,1
613,548,1
612,548,1
611,548,1
610,548,1
609,548,1
608,548,1
607,548,1
605,548,1
593,548,1
574,548,1
604,549,1
603,549,1
602,549,1
601,549,1
600,549,1
599,549,1
592,549,1
591,549,1
590,549,1
589,549,1
588,549,1
587,549,1
586,549,1
585,549,1
578,549,1
576,549,1
568,549,1
567,549,1
562,549,1
561,549,1
560,549,1
559,549,1
581,550,1
577,550,1
573,550,1
570,550,1
580,551,1
565,551,1
558,551,1
557,551,1
691,552,1
690,552,1
689,552,1
688,552,1
687,552,1
681,552,1
680,552,1
679,552,1
641,552,1
640,552,1
639,552,1
638,552,1
637,552,1
636,552,1
597,552,1
596,552,1
595,552,1
594,552,1
584,552,1
572,552,1
564,552,1
694,552,1
693,552,1
692,552,1
672,554,1
671,554,1
670,554,1
669,554,1
668,554,1
667,554,1
652,554,1
651,554,1
650,554,1
649,554,1
648,554,1
647,554,1
646,554,1
575,555,1
569,555,1
566,555,1
663,556,1
642,556,1
606,556,1
598,556,1
