0	21	1
0	42	1
0	63	1
0	52	1
0	0	1
1	42	1
1	5	1
1	53	1
1	63	1
1	53	1
2	56	1
2	42	1
2	21	1
2	52	1
2	0	1
3	42	1
3	5	1
3	21	1
3	56	1
3	63	1
4	40	1
4	63	1
4	6	1
4	41	1
4	0	1
5	63	1
5	21	1
5	42	1
5	58	1
5	41	1
6	42	1
6	21	1
6	21	1
6	41	1
6	63	1
7	36	1
7	16	1
7	21	1
7	57	1
7	42	1
8	21	1
8	42	1
8	0	1
8	56	1
8	52	1
9	42	1
9	63	1
9	20	1
9	21	1
9	0	1
10	20	1
10	41	1
10	40	1
10	63	1
10	42	1
11	21	1
11	52	1
11	42	1
11	63	1
11	1	1
12	21	1
12	41	1
12	20	1
12	42	1
12	63	1
13	0	1
13	41	1
13	56	1
13	63	1
13	52	1
14	52	1
14	42	1
14	5	1
14	48	1
14	63	1
15	42	1
15	36	1
15	20	1
15	56	1
15	0	1
16	40	1
16	63	1
16	6	1
16	41	1
16	0	1
17	16	1
17	42	1
17	21	1
17	63	1
17	53	1
18	56	1
18	63	1
18	6	1
18	41	1
18	0	1
19	42	1
19	21	1
19	63	1
19	20	1
19	0	1
20	42	1
20	36	1
20	20	1
20	56	1
20	0	1
21	0	1
21	16	1
21	21	1
21	63	1
21	42	1
22	63	1
22	6	1
22	32	1
22	5	1
22	1	1
23	21	1
23	57	1
23	5	1
23	0	1
23	5	1
24	21	1
24	20	1
24	41	1
24	42	1
24	63	1
25	21	1
25	41	1
25	20	1
25	42	1
25	63	1
26	60	1
26	62	1
26	36	1
26	16	1
26	52	1
27	21	1
27	43	1
27	6	1
27	41	1
27	63	1
28	26	1
28	42	1
28	5	1
28	56	1
28	63	1
29	5	1
29	26	1
29	21	1
29	56	1
29	63	1
30	42	1
30	63	1
30	1	1
30	21	1
30	0	1
31	0	1
31	48	1
31	63	1
31	1	1
31	60	1
32	42	1
32	21	1
32	16	1
32	41	1
32	63	1
33	21	1
33	21	1
33	63	1
33	0	1
33	0	1
34	63	1
34	60	1
34	21	1
34	1	1
34	0	1
35	20	1
35	6	1
35	62	1
35	21	1
35	41	1
36	21	1
36	63	1
36	20	1
36	56	1
36	0	1
37	37	1
37	0	1
37	5	1
37	57	1
37	61	1
38	37	1
38	42	1
38	53	1
38	21	1
38	63	1
39	37	1
39	56	1
39	5	1
39	16	1
39	42	1
40	42	1
40	63	1
40	21	1
40	1	1
40	0	1
41	63	1
41	21	1
41	41	1
41	0	1
41	0	1
42	21	1
42	16	1
42	42	1
42	63	1
42	53	1
43	48	1
43	21	1
43	63	1
43	60	1
43	1	1
44	16	1
44	0	1
44	58	1
44	41	1
44	21	1
45	42	1
45	21	1
45	5	1
45	0	1
45	1	1
46	56	1
46	1	1
46	41	1
46	63	1
46	52	1
47	21	1
47	63	1
47	1	1
47	0	1
47	0	1
48	21	1
48	63	1
48	58	1
48	20	1
48	0	1
49	52	1
49	22	1
49	5	1
49	56	1
49	63	1
50	20	1
50	57	1
50	41	1
50	20	1
50	63	1
51	32	1
51	54	1
51	6	1
51	42	1
51	47	1
52	21	1
52	0	1
52	21	1
52	42	1
52	63	1
53	16	1
53	20	1
53	41	1
53	62	1
53	63	1
54	21	1
54	41	1
54	32	1
54	63	1
54	16	1
55	52	1
55	16	1
55	53	1
55	48	1
55	58	1
56	63	1
56	41	1
56	21	1
56	0	1
56	0	1
57	58	1
57	57	1
57	37	1
57	37	1
57	32	1
58	11	1
58	53	1
58	58	1
58	53	1
58	63	1
59	21	1
59	0	1
59	42	1
59	25	1
59	63	1
60	21	1
60	61	1
60	58	1
60	63	1
60	53	1
61	52	1
61	49	1
61	63	1
61	58	1
61	53	1
62	21	1
62	0	1
62	53	1
62	58	1
62	63	1
63	32	1
63	0	1
63	21	1
63	42	1
63	63	1
64	16	1
64	37	1
64	42	1
64	32	1
64	63	1
65	5	1
65	63	1
65	25	1
65	5	1
65	42	1
66	37	1
66	16	1
66	52	1
66	42	1
66	63	1
67	20	1
67	40	1
67	41	1
67	62	1
67	63	1
68	52	1
68	16	1
68	53	1
68	48	1
68	58	1
69	21	1
69	16	1
69	42	1
69	25	1
69	63	1
70	63	1
70	21	1
70	0	1
70	20	1
70	1	1
71	21	1
71	16	1
71	42	1
71	25	1
71	63	1
72	20	1
72	40	1
72	41	1
72	62	1
72	63	1
73	20	1
73	53	1
73	21	1
73	42	1
73	63	1
74	56	1
74	32	1
74	37	1
74	42	1
74	63	1
75	20	1
75	40	1
75	41	1
75	63	1
75	62	1
76	21	1
76	16	1
76	42	1
76	25	1
76	63	1
77	16	1
77	37	1
77	42	1
77	0	1
77	63	1
78	21	1
78	53	1
78	37	1
78	58	1
78	63	1
79	21	1
79	0	1
79	32	1
79	42	1
79	59	1
80	11	1
80	32	1
80	58	1
80	63	1
80	53	1
81	63	1
81	63	1
81	58	1
81	58	1
81	58	1
82	20	1
82	24	1
82	58	1
82	54	1
82	63	1
83	16	1
83	21	1
83	42	1
83	25	1
83	63	1
84	20	1
84	20	1
84	41	1
84	58	1
84	63	1
85	60	1
85	16	1
85	57	1
85	63	1
85	26	1
86	37	1
86	58	1
86	37	1
86	32	1
86	63	1
87	16	1
87	20	1
87	42	1
87	54	1
87	63	1
88	21	1
88	16	1
88	58	1
88	58	1
88	63	1
89	21	1
89	57	1
89	32	1
89	0	1
89	63	1
90	21	1
90	25	1
90	41	1
90	58	1
90	63	1
91	37	1
91	42	1
91	0	1
91	20	1
91	1	1
92	42	1
92	20	1
92	20	1
92	37	1
92	63	1
93	41	1
93	21	1
93	0	1
93	32	1
93	63	1
94	52	1
94	58	1
94	63	1
94	49	1
94	53	1
95	56	1
95	32	1
95	37	1
95	42	1
95	63	1
96	16	1
96	42	1
96	32	1
96	37	1
96	63	1
97	21	1
97	32	1
97	41	1
97	0	1
97	63	1
98	60	1
98	16	1
98	57	1
98	63	1
98	26	1
99	37	1
99	16	1
99	63	1
99	57	1
99	32	1
