1174	795	1
1175	796	1
1176	797	1
1177	798	1
1178	799	1
1179	800	1
1180	801	1
1181	802	1
1182	803	1
1183	804	1
1184	805	1
1185	806	1
1186	807	1
1187	808	1
1188	809	1
1189	810	1
1190	811	1
1191	812	1
1192	813	1
1193	814	1
1194	815	1
1195	816	1
1196	817	1
1197	818	1
1198	819	1
1199	820	1
1200	821	1
1201	822	1
1202	823	1
1203	824	1
1204	825	1
1205	826	1
1206	827	1
1207	828	1
1208	829	1
1209	830	1
1210	831	1
1211	832	1
1212	833	1
1213	834	1
1214	835	1
1215	836	1
1216	837	1
1217	838	1
1218	839	1
1219	840	1
1220	841	1
1221	842	1
1222	843	1
1223	844	1
1224	845	1
1225	846	1
1226	847	1
1227	848	1
1228	849	1
1229	850	1
1230	851	1
1231	852	1
1232	853	1
1233	854	1
1234	855	1
1235	856	1
1236	857	1
1237	858	1
1238	859	1
1239	860	1
1240	861	1
1241	862	1
1242	863	1
1243	864	1
1244	865	1
1245	866	1
1246	867	1
1247	868	1
1248	869	1
1249	870	1
1250	871	1
1251	872	1
1252	873	1
1253	874	1
1254	875	1
1255	876	1
1256	877	1
1257	878	1
1258	879	1
1259	880	1
1260	881	1
1261	882	1
1262	883	1
1263	884	1
1264	885	1
1265	886	1
1266	887	1
1267	888	1
1268	889	1
1269	890	1
1270	891	1
1271	892	1
1272	893	1
1273	894	1
