881	546	1
874	546	1
858	546	1
856	546	1
849	546	1
845	546	1
883	547	1
864	547	1
841	547	1
840	547	1
838	547	1
834	547	1
819	547	1
816	547	1
815	547	1
807	547	1
798	547	1
878	548	1
860	548	1
843	548	1
825	548	1
823	548	1
814	548	1
795	548	1
892	549	1
891	549	1
890	549	1
889	549	1
887	549	1
886	549	1
885	549	1
884	549	1
882	549	1
879	549	1
877	549	1
876	549	1
875	549	1
872	549	1
870	549	1
869	549	1
868	549	1
867	549	1
865	549	1
863	549	1
862	549	1
861	549	1
859	549	1
857	549	1
855	549	1
854	549	1
853	549	1
852	549	1
850	549	1
848	549	1
847	549	1
846	549	1
839	549	1
836	549	1
832	549	1
827	549	1
821	549	1
820	549	1
818	549	1
817	549	1
810	549	1
806	549	1
805	549	1
803	549	1
800	549	1
894	549	1
828	550	1
842	551	1
801	551	1
880	552	1
851	552	1
829	552	1
822	552	1
888	553	1
835	554	1
873	555	1
866	555	1
844	555	1
826	555	1
824	555	1
809	555	1
808	555	1
804	555	1
802	555	1
797	555	1
796	555	1
893	556	1
871	556	1
837	556	1
833	556	1
831	556	1
830	556	1
813	556	1
812	556	1
811	556	1
799	556	1
