0	2	1
1	8	1
2	7	1
3	0	1
4	9	1
5	9	1
6	9	1
7	8	1
8	7	1
9	7	1
10	7	1
11	2	1
12	0	1
13	7	1
14	8	1
15	2	1
16	9	1
17	8	1
18	9	1
19	2	1
20	8	1
21	8	1
22	0	1
23	2	1
24	0	1
25	7	1
26	2	1
27	9	1
28	2	1
29	8	1
30	2	1
31	7	1
32	4	1
33	4	1
34	7	1
35	9	1
36	8	1
37	2	1
38	8	1
39	0	1
40	0	1
41	9	1
42	8	1
43	0	1
44	4	1
45	8	1
46	7	1
47	0	1
48	2	1
49	8	1
50	0	1
51	2	1
52	8	1
53	0	1
54	0	1
55	8	1
56	8	1
57	0	1
58	0	1
59	4	1
60	2	1
61	0	1
62	0	1
63	7	1
64	0	1
65	2	1
66	8	1
67	7	1
68	0	1
69	3	1
70	2	1
71	3	1
72	7	1
73	7	1
74	0	1
75	2	1
76	3	1
77	7	1
78	7	1
79	2	1
80	0	1
81	7	1
