795,0
796,1
797,2
798,3
799,4
800,5
801,6
802,7
803,8
804,9
805,10
806,11
807,12
808,13
809,14
810,15
811,16
812,17
813,18
814,19
815,20
816,21
817,22
818,23
819,24
820,25
821,26
822,27
823,28
824,29
825,30
826,31
827,32
828,33
829,34
830,35
831,36
832,37
833,38
834,39
835,40
836,41
837,42
838,43
839,44
840,45
841,46
842,47
843,48
844,49
845,50
846,51
847,52
848,53
849,54
850,55
851,56
852,57
853,58
854,59
855,60
856,61
857,62
858,63
859,64
860,65
861,66
862,67
863,68
864,69
865,70
866,71
867,72
868,73
869,74
870,75
871,76
872,77
873,78
874,79
875,80
876,81
877,82
878,83
879,84
880,85
881,86
882,87
883,88
884,89
885,90
886,91
887,92
888,93
889,94
890,95
891,96
892,97
893,98
894,99
