1647,0
1648,1
1649,2
1650,3
1651,4
1652,5
1653,6
1654,7
1655,8
1656,9
1657,10
1658,11
1659,12
1660,13
1661,14
1662,15
1663,16
1664,17
1665,18
1666,19
1667,20
1668,21
1669,22
1670,23
1671,24
1672,25
1673,26
1674,27
1675,28
1676,29
1677,30
1678,31
1679,32
1680,33
1681,34
1682,35
1683,36
1684,37
1685,38
1686,39
1687,40
1688,41
1689,42
1690,43
1691,44
1692,45
1693,46
1694,47
1695,48
1696,49
1697,50
1698,51
1699,52
1700,53
1701,54
1702,55
1703,56
1704,57
1705,58
1706,59
1707,60
1708,61
1709,62
1710,63
1711,64
1712,65
1713,66
1714,67
1715,68
1716,69
1717,70
1718,71
1719,72
1720,73
1721,74
1722,75
1723,76
1724,77
1725,78
1726,79
1727,80
1728,81
1729,82
1730,83
1731,84
1732,85
1733,86
1734,87
1735,88
1736,89
1737,90
1738,91
1739,92
1740,93
1741,94
1742,95
1743,96
1744,97
1745,98
1746,99
1747,100
1748,101
1749,102
1750,103
1751,104
1752,105
1753,106
1754,107
1755,108
1756,109
1757,110
1758,111
1759,112
1760,113
1761,114
1762,115
1763,116
1764,117
1765,118
1766,119
1767,120
1768,121
1769,122
1770,123
1771,124
1772,125
1773,126
1774,127
1775,128
1776,129
1777,130
1778,131
1779,132
1780,133
1781,134
1782,135
1783,136
1784,137
1785,138
1786,139
1787,140
1788,141
1789,142
1790,143
1791,144
1792,145
1793,146
1794,147
1795,148
1796,149
1797,150
1798,151
1799,152
1800,153
1801,154
1802,155
1803,156
1804,157
1805,158
1806,159
1807,160
1808,161
1809,162
1810,163
1811,164
1812,165
1813,166
1814,167
1815,168
1816,169
1817,170
1818,171
1819,172
1820,173
1821,174
1822,175
1823,176
1824,177
1825,178
1826,179
1827,180
1828,181
1829,182
1830,183
1831,184
1832,185
1833,186
1834,187
1835,188
1836,189
1837,190
1838,191
1839,192
1840,193
1841,194
1842,195
1843,196
1844,197
1845,198
1846,199
1847,200
1848,201
1849,202
1850,203
1851,204
1852,205
1853,206
1854,207
1855,208
1856,209
1857,210
1858,211
1859,212
1860,213
1861,214
1862,215
1863,216
1864,217
1865,218
1866,219
1867,220
1868,221
1869,222
1870,223
1871,224
1872,225
1873,226
1874,227
1875,228
1876,229
1877,230
1878,231
1879,232
1880,233
1881,234
1882,235
1883,236
1884,237
1885,238
1886,239
1887,240
1888,241
1889,242
1890,243
1891,244
1892,245
1893,246
1894,247
1895,248
1896,249
1897,250
1898,251
1899,252
1900,253
1901,254
1902,255
1903,256
1904,257
1905,258
1906,259
1907,260
1908,261
1909,262
1910,263
1911,264
1912,265
1913,266
1914,267
1915,268
1916,269
1917,270
1918,271
1919,272
1920,273
1921,274
1922,275
1923,276
1924,277
1925,278
1926,279
1927,280
1928,281
1929,282
1930,283
1931,284
1932,285
1933,286
1934,287
1935,288
1936,289
1937,290
1938,291
1939,292
1940,293
1941,294
1942,295
1943,296
1944,297
1945,298
1946,299
1947,300
1948,301
1949,302
1950,303
1951,304
1952,305
1953,306
1954,307
1955,308
1956,309
1957,310
1958,311
1959,312
1960,313
1961,314
1962,315
1963,316
1964,317
1965,318
1966,319
1967,320
1968,321
1969,322
1970,323
1971,324
1972,325
1973,326
1974,327
1975,328
1976,329
1977,330
1978,331
1979,332
1980,333
1981,334
1982,335
1983,336
1984,337
1985,338
1986,339
1987,340
1988,341
1989,342
1990,343
1991,344
1992,345
1993,346
1994,347
1995,348
1996,349
1997,350
1998,351
1999,352
2000,353
2001,354
2002,355
2003,356
2004,357
2005,358
2006,359
2007,360
2008,361
2009,362
2010,363
2011,364
2012,365
2013,366
2014,367
2015,368
2016,369
2017,370
2018,371
2019,372
2020,373
2021,374
2022,375
2023,376
2024,377
2025,378
2026,379
2027,380
2028,381
2029,382
2030,383
2031,384
2032,385
2033,386
2034,387
2035,388
2036,389
2037,390
2038,391
2039,392
2040,393
2041,394
2042,395
2043,396
2044,397
2045,398
2046,399
2047,400
2048,401
2049,402
2050,403
2051,404
2052,405
2053,406
2054,407
2055,408
2056,409
2057,410
2058,411
2059,412
2060,413
2061,414
2062,415
2063,416
2064,417
2065,418
2066,419
2067,420
2068,421
2069,422
2070,423
2071,424
2072,425
2073,426
2074,427
2075,428
2076,429
2077,430
2078,431
2079,432
2080,433
2081,434
2082,435
2083,436
2084,437
2085,438
2086,439
2087,440
2088,441
2089,442
2090,443
2091,444
2092,445
2093,446
2094,447
2095,448
2096,449
2097,450
2098,451
2099,452
2100,453
2101,454
2102,455
2103,456
2104,457
2105,458
2106,459
2107,460
2108,461
2109,462
2110,463
2111,464
2112,465
2113,466
2114,467
2115,468
2116,469
2117,470
2118,471
2119,472
2120,473
2121,474
2122,475
2123,476
2124,477
2125,478
2126,479
2127,480
2128,481
2129,482
2130,483
2131,484
2132,485
2133,486
2134,487
2135,488
2136,489
2137,490
2138,491
2139,492
2140,493
2141,494
2142,495
2143,496
2144,497
2145,498
2146,499
2147,500
2148,501
2149,502
2150,503
2151,504
2152,505
2153,506
2154,507
2155,508
2156,509
2157,510
2158,511
2159,512
2160,513
2161,514
2162,515
2163,516
2164,517
2165,518
2166,519
2167,520
2168,521
2169,522
2170,523
2171,524
2172,525
2173,526
2174,527
2175,528
2176,529
2177,530
2178,531
2179,532
2180,533
2181,534
2182,535
2183,536
2230,537
2231,538
2232,539
2233,540
2234,541
2235,542
2236,543
2237,544
2238,545
2239,546
2240,547
2241,548
2242,549
2243,550
2244,551
2245,552
2246,553
2247,554
2248,555
2249,556
2250,557
2251,558
2252,559
2253,560
2254,561
2255,562
2256,563
2257,564
2258,565
2259,566
2260,567
2261,568
2262,569
2263,570
2264,571
2265,572
2266,573
2267,574
2268,575
2269,576
2270,577
2271,578
2272,579
2273,580
2274,581
2275,582
2276,583
2277,584
2278,585
2279,586
2280,587
2281,588
2282,589
2283,590
2284,591
2285,592
2286,593
2287,594
2288,595
2289,596
2290,597
2291,598
2292,599
2293,600
2294,601
2295,602
2296,603
2297,604
2298,605
2299,606
2300,607
2301,608
2302,609
2303,610
2304,611
2305,612
2306,613
2307,614
2308,615
2309,616
2310,617
2311,618
2312,619
2313,620
2314,621
2315,622
2316,623
2317,624
2318,625
2319,626
2320,627
2321,628
2322,629
2323,630
2324,631
2325,632
2326,633
2327,634
2328,635
2329,636
2330,637
2331,638
2332,639
2333,640
2334,641
2335,642
2336,643
2337,644
2338,645
2339,646
2340,647
2341,648
2342,649
2343,650
2344,651
2345,652
2346,653
2347,654
2348,655
2349,656
2350,657
2351,658
2352,659
2353,660
2354,661
2355,662
2356,663
2357,664
2358,665
2359,666
2360,667
2361,668
2362,669
2363,670
2364,671
2365,672
2366,673
2367,674
2368,675
2369,676
2370,677
2371,678
2372,679
2373,680
2374,681
2375,682
2376,683
2377,684
2378,685
2379,686
2380,687
2381,688
2382,689
2383,690
2384,691
2385,692
2386,693
2387,694
2388,695
2389,696
2390,697
2391,698
2392,699
2393,700
2394,701
2395,702
2396,703
2397,704
2398,705
2399,706
2400,707
2401,708
2402,709
2403,710
2404,711
2405,712
2406,713
2407,714
2408,715
2409,716
2410,717
2411,718
2412,719
2413,720
2414,721
2415,722
2416,723
2417,724
2418,725
2419,726
2420,727
2421,728
2422,729
2423,730
2424,731
2425,732
2426,733
2427,734
2428,735
2429,736
2430,737
2431,738
2432,739
2433,740
2434,741
2435,742
2436,743
2437,744
2438,745
2439,746
2440,747
2441,748
2442,749
2443,750
2444,751
2445,752
2446,753
2447,754
2448,755
2449,756
2450,757
2451,758
2452,759
2453,760
2454,761
2455,762
2456,763
2457,764
2458,765
2459,766
2460,767
2461,768
2462,769
2463,770
2464,771
2465,772
2466,773
2467,774
2468,775
2469,776
2470,777
2471,778
2472,779
2473,780
2474,781
2475,782
2476,783
2477,784
2478,785
2479,786
2480,787
2481,788
2482,789
2483,790
2484,791
2485,792
2486,793
2487,794
2488,795
2489,796
2490,797
2491,798
2492,799
2493,800
2494,801
2495,802
2496,803
2497,804
2498,805
2499,806
2500,807
2501,808
2502,809
2503,810
2504,811
2505,812
2506,813
2507,814
2508,815
2509,816
2510,817
2511,818
2512,819
2513,820
2514,821
2515,822
2516,823
2517,824
2518,825
2519,826
2520,827
2521,828
2522,829
2523,830
2524,831
2525,832
2526,833
2527,834
2528,835
2529,836
2530,837
2531,838
2532,839
2533,840
2534,841
2535,842
2536,843
2537,844
2538,845
2539,846
2540,847
2541,848
2542,849
2543,850
2544,851
2545,852
2546,853
2547,854
2548,855
2549,856
2550,857
2551,858
2552,859
2553,860
2554,861
2555,862
2556,863
2557,864
2558,865
2559,866
2560,867
2561,868
2562,869
2563,870
2564,871
2565,872
2566,873
2567,874
2568,875
2569,876
2570,877
2571,878
2572,879
2573,880
2574,881
2575,882
2576,883
2577,884
2578,885
2579,886
2580,887
2581,888
2582,889
2583,890
2584,891
2585,892
2586,893
2587,894
2588,895
2589,896
2590,897
2591,898
2592,899
2593,900
2594,901
2595,902
2596,903
2597,904
2598,905
2599,906
2600,907
2601,908
2602,909
2603,910
2604,911
2605,912
2606,913
2607,914
2608,915
2609,916
2610,917
2611,918
2612,919
2613,920
2614,921
2615,922
2616,923
2617,924
2618,925
2619,926
2620,927
2621,928
2622,929
2623,930
2624,931
2625,932
2626,933
2627,934
2628,935
2629,936
2630,937
2631,938
2632,939
2633,940
2634,941
2635,942
2636,943
2637,944
2638,945
2639,946
2640,947
2641,948
2642,949
2643,950
2644,951
2645,952
2646,953
2647,954
2648,955
2649,956
2650,957
2651,958
2652,959
2653,960
2654,961
2655,962
2656,963
2657,964
2658,965
2659,966
2660,967
2661,968
2662,969
2663,970
2664,971
2665,972
2666,973
2667,974
2668,975
2669,976
2670,977
2671,978
2672,979
2673,980
2674,981
2675,982
2676,983
2677,984
2678,985
2679,986
2680,987
2681,988
2682,989
2683,990
2684,991
2685,992
2686,993
2687,994
2688,995
2689,996
2690,997
2691,998
2692,999
2693,1000
2694,1001
2695,1002
2696,1003
2697,1004
2698,1005
2699,1006
2700,1007
2701,1008
2702,1009
2703,1010
2704,1011
2705,1012
2706,1013
2707,1014
2708,1015
2709,1016
2710,1017
2711,1018
2712,1019
2713,1020
2714,1021
2715,1022
2716,1023
2717,1024
2718,1025
2719,1026
2720,1027
2721,1028
2722,1029
2723,1030
2724,1031
2725,1032
2726,1033
2727,1034
2728,1035
2729,1036
2730,1037
2731,1038
2732,1039
2733,1040
2734,1041
2735,1042
2736,1043
2737,1044
2738,1045
2739,1046
2740,1047
2741,1048
2742,1049
2743,1050
2744,1051
2745,1052
2746,1053
2747,1054
2748,1055
2749,1056
2750,1057
2751,1058
2752,1059
2753,1060
2754,1061
2755,1062
2756,1063
2757,1064
2758,1065
2759,1066
2760,1067
2761,1068
2762,1069
2763,1070
2764,1071
2765,1072
2766,1073
2767,1074
2768,1075
2769,1076
2770,1077
2771,1078
2772,1079
2773,1080
2774,1081
2775,1082
2776,1083
2777,1084
2778,1085
2779,1086
2780,1087
2781,1088
2782,1089
2783,1090
2784,1091
2785,1092
2786,1093
2787,1094
2788,1095
2789,1096
2790,1097
2791,1098
2792,1099
2793,1100
2794,1101
2795,1102
2796,1103
2797,1104
2798,1105
2799,1106
2800,1107
2801,1108
2802,1109
2803,1110
2804,1111
2805,1112
2806,1113
2807,1114
2808,1115
2809,1116
2810,1117
2811,1118
2812,1119
2813,1120
2814,1121
2815,1122
2816,1123
2817,1124
2818,1125
2819,1126
2820,1127
2821,1128
2822,1129
2823,1130
2824,1131
2825,1132
2826,1133
2827,1134
2828,1135
2829,1136
2830,1137
2831,1138
2832,1139
2833,1140
2834,1141
2835,1142
2836,1143
2837,1144
2838,1145
2839,1146
2840,1147
2841,1148
2842,1149
2843,1150
2844,1151
2845,1152
2846,1153
2847,1154
2848,1155
2849,1156
2850,1157
2851,1158
2852,1159
3276,1160
3277,1161
3278,1162
3279,1163
3280,1164
3281,1165
3282,1166
3283,1167
3284,1168
3285,1169
3286,1170
3287,1171
3288,1172
3289,1173
3290,1174
3291,1175
3292,1176
3293,1177
3294,1178
3295,1179
3296,1180
3297,1181
3298,1182
3299,1183
3300,1184
3301,1185
3302,1186
3303,1187
3304,1188
3305,1189
3306,1190
3307,1191
3308,1192
3309,1193
3310,1194
3311,1195
3312,1196
3313,1197
3314,1198
3315,1199
3316,1200
3317,1201
3318,1202
3319,1203
3320,1204
3321,1205
3322,1206
3323,1207
3324,1208
3325,1209
3326,1210
3327,1211
3328,1212
3329,1213
3330,1214
3331,1215
3332,1216
3333,1217
3334,1218
3335,1219
3336,1220
3337,1221
3338,1222
3339,1223
3340,1224
3341,1225
3342,1226
3343,1227
3344,1228
3345,1229
3346,1230
3347,1231
3348,1232
3349,1233
3350,1234
3351,1235
3352,1236
3353,1237
3354,1238
3355,1239
3356,1240
3357,1241
3358,1242
3359,1243
3360,1244
3361,1245
3362,1246
3363,1247
3364,1248
3365,1249
3366,1250
3367,1251
3368,1252
3369,1253
3370,1254
3371,1255
3372,1256
3373,1257
3374,1258
3375,1259
3376,1260
3377,1261
3378,1262
3379,1263
3380,1264
3381,1265
3382,1266
3383,1267
3384,1268
3385,1269
3386,1270
3387,1271
3388,1272
3389,1273
3390,1274
3391,1275
3392,1276
3393,1277
3394,1278
3395,1279
3396,1280
3397,1281
3398,1282
3399,1283
3400,1284
3401,1285
3402,1286
3403,1287
3404,1288
3405,1289
3406,1290
3407,1291
3408,1292
3409,1293
3410,1294
3411,1295
3412,1296
3413,1297
3414,1298
3415,1299
3416,1300
3417,1301
3418,1302
3419,1303
3420,1304
3421,1305
3422,1306
3423,1307
3424,1308
3425,1309
3426,1310
3427,1311
3428,1312
3429,1313
3430,1314
3431,1315
3432,1316
3433,1317
3434,1318
3435,1319
3436,1320
3437,1321
3438,1322
3439,1323
3440,1324
3441,1325
3442,1326
3443,1327
3444,1328
3445,1329
3446,1330
3447,1331
3448,1332
3449,1333
3450,1334
3451,1335
3452,1336
3453,1337
3454,1338
3455,1339
3456,1340
3457,1341
3458,1342
3459,1343
3460,1344
3461,1345
3462,1346
3463,1347
3464,1348
3465,1349
3466,1350
3467,1351
3468,1352
3469,1353
3470,1354
3471,1355
3472,1356
3473,1357
3474,1358
3475,1359
3476,1360
3477,1361
3478,1362
3479,1363
3480,1364
3481,1365
3482,1366
3483,1367
3484,1368
3485,1369
3486,1370
3487,1371
3488,1372
3489,1373
3490,1374
3491,1375
3492,1376
3493,1377
3494,1378
3495,1379
3496,1380
3497,1381
3498,1382
3499,1383
3500,1384
3501,1385
3502,1386
3503,1387
3504,1388
3505,1389
3506,1390
3507,1391
3508,1392
3509,1393
3510,1394
3511,1395
3512,1396
3513,1397
3514,1398
3515,1399
3516,1400
3517,1401
3518,1402
3519,1403
3520,1404
3521,1405
3522,1406
3523,1407
3524,1408
3525,1409
3526,1410
3527,1411
3528,1412
3529,1413
3530,1414
3531,1415
3532,1416
3533,1417
3534,1418
3535,1419
3536,1420
3537,1421
3538,1422
3539,1423
3540,1424
3541,1425
3542,1426
3543,1427
3544,1428
3545,1429
3546,1430
3547,1431
3548,1432
3549,1433
3550,1434
3551,1435
3552,1436
3553,1437
3554,1438
3555,1439
3556,1440
3557,1441
3558,1442
3559,1443
3560,1444
3561,1445
3562,1446
3563,1447
3564,1448
3565,1449
3566,1450
3567,1451
3568,1452
3569,1453
3570,1454
3571,1455
3572,1456
3573,1457
3574,1458
3575,1459
3576,1460
3577,1461
3578,1462
3579,1463
3580,1464
3581,1465
3582,1466
3583,1467
3584,1468
3585,1469
3586,1470
3587,1471
3588,1472
3589,1473
3590,1474
3591,1475
3592,1476
3593,1477
3594,1478
3595,1479
3596,1480
3597,1481
3598,1482
3599,1483
3600,1484
3601,1485
3602,1486
3603,1487
3604,1488
3605,1489
3606,1490
3607,1491
3608,1492
3609,1493
3610,1494
3611,1495
3612,1496
3613,1497
3614,1498
3615,1499
3616,1500
3617,1501
3618,1502
3619,1503
3620,1504
3621,1505
3622,1506
3623,1507
3624,1508
3625,1509
3626,1510
3627,1511
3628,1512
3629,1513
3630,1514
3631,1515
3632,1516
3633,1517
3634,1518
3635,1519
3636,1520
3637,1521
3638,1522
3639,1523
3640,1524
3641,1525
3642,1526
3643,1527
3644,1528
3645,1529
3646,1530
3647,1531
3648,1532
3649,1533
3650,1534
3651,1535
3652,1536
3653,1537
3654,1538
3655,1539
3656,1540
3657,1541
3658,1542
3659,1543
3660,1544
3661,1545
3662,1546
3663,1547
3664,1548
3665,1549
3666,1550
3667,1551
3668,1552
3669,1553
3670,1554
3671,1555
3672,1556
3673,1557
3674,1558
3675,1559
3676,1560
3677,1561
3678,1562
3679,1563
3680,1564
3681,1565
3682,1566
3683,1567
3684,1568
3685,1569
3686,1570
3687,1571
3688,1572
3689,1573
3690,1574
3691,1575
3692,1576
3693,1577
3694,1578
3695,1579
3696,1580
3697,1581
3698,1582
3699,1583
3700,1584
3701,1585
3702,1586
3703,1587
3704,1588
3705,1589
3706,1590
3707,1591
3708,1592
3709,1593
3710,1594
3711,1595
3712,1596
3713,1597
3714,1598
3715,1599
3716,1600
3717,1601
3718,1602
3719,1603
3720,1604
3721,1605
3722,1606
3723,1607
3724,1608
3725,1609
3726,1610
3727,1611
3728,1612
3729,1613
3730,1614
3731,1615
3732,1616
3733,1617
3734,1618
3735,1619
3736,1620
3737,1621
3738,1622
3739,1623
3740,1624
3741,1625
3742,1626
3743,1627
3744,1628
3745,1629
3746,1630
3747,1631
3748,1632
3749,1633
3750,1634
3751,1635
3752,1636
3753,1637
3754,1638
3755,1639
3756,1640
3757,1641
3758,1642
3759,1643
3760,1644
3761,1645
3762,1646
3763,1647
3764,1648
3765,1649
3766,1650
3767,1651
3768,1652
3769,1653
3770,1654
3771,1655
3772,1656
3773,1657
3774,1658
3775,1659
