557	1295	1
557	1311	1
557	1337	1
558	1274	1
558	1316	1
558	1326	1
559	1316	1
559	1295	1
559	1337	1
560	1295	1
560	1295	1
560	1274	1
561	1311	1
561	1316	1
561	1295	1
562	1295	1
562	1274	1
562	1316	1
563	1274	1
563	1311	1
563	1316	1
564	1295	1
564	1316	1
564	1274	1
565	1327	1
565	1295	1
565	1337	1
566	1327	1
566	1316	1
566	1295	1
567	1295	1
567	1295	1
567	1274	1
568	1274	1
568	1295	1
568	1316	1
569	1306	1
569	1279	1
569	1316	1
570	1316	1
570	1295	1
570	1274	1
571	1274	1
571	1311	1
571	1316	1
572	1316	1
572	1295	1
572	1337	1
573	1295	1
573	1279	1
573	1275	1
574	1274	1
574	1274	1
574	1295	1
575	1275	1
575	1311	1
575	1274	1
576	1290	1
576	1295	1
576	1316	1
577	1274	1
577	1295	1
577	1316	1
578	1295	1
578	1311	1
578	1275	1
579	1299	1
579	1316	1
579	1274	1
580	1327	1
580	1337	1
580	1295	1
581	1274	1
581	1295	1
581	1316	1
582	1295	1
582	1316	1
582	1274	1
583	1295	1
583	1274	1
583	1274	1
584	1330	1
584	1295	1
584	1337	1
585	1316	1
585	1337	1
585	1337	1
586	1295	1
586	1316	1
586	1336	1
587	1274	1
587	1316	1
587	1337	1
588	1274	1
588	1315	1
588	1337	1
589	1295	1
589	1316	1
589	1336	1
590	1295	1
590	1316	1
590	1337	1
591	1274	1
591	1316	1
591	1337	1
592	1295	1
592	1316	1
592	1337	1
593	1331	1
593	1316	1
593	1320	1
594	1295	1
594	1316	1
594	1337	1
595	1315	1
595	1316	1
595	1337	1
596	1295	1
596	1316	1
596	1337	1
597	1311	1
597	1316	1
597	1337	1
598	1295	1
598	1316	1
598	1336	1
599	1316	1
599	1307	1
599	1327	1
600	1316	1
600	1295	1
600	1295	1
601	1290	1
601	1295	1
601	1316	1
602	1294	1
602	1315	1
602	1337	1
603	1311	1
603	1316	1
603	1337	1
604	1311	1
604	1290	1
604	1306	1
605	1327	1
605	1332	1
605	1337	1
606	1295	1
606	1336	1
606	1311	1
607	1327	1
607	1316	1
607	1337	1
608	1327	1
608	1332	1
608	1337	1
609	1315	1
609	1336	1
609	1316	1
610	1295	1
610	1316	1
610	1320	1
611	1299	1
611	1316	1
611	1337	1
612	1299	1
612	1316	1
612	1337	1
613	1316	1
613	1337	1
613	1316	1
614	1316	1
614	1337	1
614	1316	1
615	1327	1
615	1316	1
615	1337	1
616	1327	1
616	1337	1
616	1332	1
617	1295	1
617	1316	1
617	1337	1
618	1295	1
618	1316	1
618	1337	1
619	1295	1
619	1316	1
619	1337	1
620	1295	1
620	1316	1
620	1337	1
621	1337	1
621	1295	1
621	1316	1
622	1274	1
622	1336	1
622	1315	1
623	1310	1
623	1307	1
623	1332	1
624	1311	1
624	1316	1
624	1290	1
625	1311	1
625	1274	1
625	1316	1
626	1327	1
626	1337	1
626	1332	1
627	1327	1
627	1332	1
627	1337	1
628	1316	1
628	1311	1
628	1337	1
629	1295	1
629	1316	1
629	1320	1
630	1295	1
630	1316	1
630	1337	1
631	1315	1
631	1316	1
631	1336	1
632	1316	1
632	1337	1
632	1316	1
633	1299	1
633	1316	1
633	1337	1
634	1316	1
634	1337	1
634	1316	1
635	1274	1
635	1316	1
635	1317	1
636	1299	1
636	1336	1
636	1316	1
637	1295	1
637	1316	1
637	1337	1
638	1295	1
638	1316	1
638	1320	1
639	1316	1
639	1337	1
639	1316	1
640	1299	1
640	1316	1
640	1337	1
641	1295	1
641	1316	1
641	1337	1
642	1311	1
642	1337	1
642	1316	1
643	1316	1
643	1290	1
643	1311	1
644	1311	1
644	1290	1
644	1316	1
645	1315	1
645	1332	1
645	1337	1
646	1315	1
646	1336	1
646	1316	1
647	1316	1
647	1337	1
647	1316	1
648	1295	1
648	1316	1
648	1337	1
649	1295	1
649	1316	1
649	1320	1
650	1299	1
650	1316	1
650	1337	1
651	1316	1
651	1316	1
651	1320	1
652	1299	1
652	1316	1
652	1337	1
653	1331	1
653	1337	1
653	1320	1
654	1315	1
654	1332	1
654	1337	1
655	1295	1
655	1316	1
655	1337	1
656	1311	1
656	1316	1
656	1337	1
657	1295	1
657	1316	1
657	1337	1
658	1295	1
658	1316	1
658	1337	1
659	1300	1
659	1337	1
659	1316	1
660	1315	1
660	1316	1
660	1336	1
661	1295	1
661	1316	1
661	1320	1
662	1316	1
662	1337	1
662	1316	1
663	1311	1
663	1337	1
663	1316	1
664	1295	1
664	1316	1
664	1337	1
665	1295	1
665	1316	1
665	1337	1
666	1295	1
666	1316	1
666	1337	1
667	1274	1
667	1316	1
667	1337	1
668	1311	1
668	1315	1
668	1336	1
669	1316	1
669	1337	1
669	1337	1
670	1295	1
670	1316	1
670	1337	1
671	1295	1
671	1316	1
671	1337	1
672	1316	1
672	1337	1
672	1316	1
673	1295	1
673	1316	1
673	1337	1
674	1337	1
674	1332	1
674	1332	1
675	1295	1
675	1316	1
675	1337	1
676	1315	1
676	1332	1
676	1311	1
677	1316	1
677	1337	1
677	1316	1
678	1274	1
678	1316	1
678	1317	1
679	1295	1
679	1337	1
679	1316	1
680	1315	1
680	1306	1
680	1290	1
681	1311	1
681	1279	1
681	1274	1
682	1300	1
682	1327	1
682	1332	1
683	1316	1
683	1311	1
683	1290	1
684	1311	1
684	1290	1
684	1332	1
685	1316	1
685	1295	1
685	1333	1
686	1294	1
686	1316	1
686	1290	1
687	1295	1
687	1316	1
687	1337	1
688	1295	1
688	1316	1
688	1337	1
689	1311	1
689	1290	1
689	1337	1
690	1306	1
690	1332	1
690	1333	1
691	1274	1
691	1332	1
691	1295	1
692	1290	1
692	1316	1
692	1337	1
693	1295	1
693	1316	1
693	1337	1
694	1316	1
694	1294	1
694	1311	1
