120	0	1
119	0	1
118	0	1
117	0	1
116	0	1
109	0	1
108	0	1
107	0	1
101	0	1
100	0	1
99	0	1
98	0	1
77	0	1
76	0	1
75	0	1
74	0	1
73	0	1
72	0	1
63	0	1
62	0	1
61	0	1
60	0	1
129	1	1
78	1	1
64	1	1
26	1	1
25	1	1
22	1	1
14	1	1
6	1	1
128	2	1
127	2	1
126	2	1
125	2	1
121	2	1
105	2	1
104	2	1
103	2	1
102	2	1
97	2	1
96	2	1
88	2	1
87	2	1
86	2	1
71	2	1
70	2	1
69	2	1
68	2	1
67	2	1
66	2	1
65	2	1
59	2	1
58	2	1
57	2	1
56	2	1
55	2	1
54	2	1
53	2	1
52	2	1
51	2	1
50	2	1
48	2	1
36	2	1
17	2	1
47	3	1
46	3	1
45	3	1
44	3	1
43	3	1
42	3	1
35	3	1
34	3	1
33	3	1
32	3	1
31	3	1
30	3	1
29	3	1
28	3	1
21	3	1
19	3	1
11	3	1
10	3	1
5	3	1
4	3	1
3	3	1
2	3	1
24	4	1
20	4	1
16	4	1
13	4	1
23	5	1
8	5	1
1	5	1
0	5	1
134	6	1
133	6	1
132	6	1
131	6	1
130	6	1
124	6	1
123	6	1
122	6	1
84	6	1
83	6	1
82	6	1
81	6	1
80	6	1
79	6	1
40	6	1
39	6	1
38	6	1
37	6	1
27	6	1
15	6	1
7	6	1
137	6	1
136	6	1
135	6	1
115	8	1
114	8	1
113	8	1
112	8	1
111	8	1
110	8	1
95	8	1
94	8	1
93	8	1
92	8	1
91	8	1
90	8	1
89	8	1
18	9	1
12	9	1
9	9	1
106	10	1
85	10	1
49	10	1
41	10	1
